mpisize | its | t | dtmin | dtmax | lmin | lmax | dxmin | dxmax | minq | maxq | t_it_min | t_it_max | t_it_mean | t_io_min | t_io_max | t_io_mean | t_adapt_min | t_adapt_max | t_adapt_mean | t_mark | t_change | t_partition | t_total |
8 1474 3 0.00024041 0.0020501 4 7 0.007812 0.062500 4964 1463834 0.01 1.03 912.65 0.03 1.69 103.848 0.02 1.16 1079.95 133.845 644.236 295.761 2097.85
16 1474 3 0.00024041 0.0020501 4 7 0.007812 0.062500 4964 1463834 0.01 0.53 459.743 0.02 1.56 64.1225 0.01 0.67 619.381 65.3569 393.261 155.451 1139.86
32 1474 3 0.00024041 0.0020501 4 7 0.007812 0.062500 4964 1463834 0 0.27 230.275 0.03 3.38 95.2966 0.01 0.38 356.171 32.3581 238.355 82.1406 678.58
64 1474 3 0.00024041 0.0020501 4 7 0.007812 0.062500 4964 1463834 0 0.18 112.548 0.03 2.36 95.7533 0.01 0.26 214.369 15.5689 152.587 44.335 429.42
128 1474 3 0.00024041 0.0020501 4 7 0.007812 0.062500 4964 1463846 0 0.09 57.3493 0.06 6.47 93.4402 0 0.16 132.415 7.31664 97.451 30.944 288.62
256 1474 3 0.00024041 0.0020501 4 7 0.007812 0.062500 4964 1463984 0 0.1 29.2921 0.07 5.65 118.731 0 0.12 84.1309 3.58508 62.2924 17.4791 233.2
