\begin{tikzpicture}
\draw [fill=blue!40] (0, 0) rectangle (2, 2);
\draw [fill=blue!40] (4, 0) rectangle (6, 2);
\draw [fill=blue!40] (8, 0) rectangle (10, 2);
\draw [->,ultra thick] (-1, 1) -- (-0.05, 1);
\draw [->,ultra thick] (2.05, 1) -- (3.95, 1);
\draw [->,ultra thick] (6.05, 1) -- (7.95, 1);
\draw [->,ultra thick] (10.05, 1) -- (10.95, 1);

\node [text width=2cm,align=center] at (1, 1) {Riemann Solver};
\node [text width=2cm,align=center] at (5, 1) {$\alpha$ Equation};
\node [text width=1.5cm,align=center] at (9, 1) {Pressure Law};

\node at (-0.5, 0.5) {$\mathbf{W}^n$};
\node at (3, 0.5) {$\mathbf{W}^{n + 1}$};
\node at (7, 0.5) {$\alpha^{n + 1}$};
\node at (10.5, 0.5) {$p^{n + 1}$};
\end{tikzpicture}
